numéro de bench,notes,comb1000 compilation,comb1000 exécution,comb10000 compilation,comb10000 exécution,nappes compilation,nappes exécution,seq0 compilation,seq0 exécution,seq compilation,seq exécution
0,interprète,0.00,1.15,0.00,3.27,0.00,2.14,0.00,0.63,0.00,1.01
1,interprète,0.00,2.69,0.00,227.61,0.00,63.05,0.00,0.07,0.00,0.15
3,compilation vers du C++,1.64,0.00,215.05,0.01,24592.57,1.65,0.42,0.07,1.15,0.04
4,interprète,0.00,3.24,0.00,302.98,0.00,64.99,0.00,4.12,0.00,4.21
5,compilation vers du C,0.24,0.00,1.76,0.00,,,0.12,0.04,0.14,0.04
6,interprète,0.00,0.92,0.00,160.56,0.00,33.60,0.00,0.08,0.00,0.09
7,interprète,0.00,0.81,0.00,6.02,0.00,4.76,0.00,0.40,0.00,0.69
8,interprète,0.00,1.98,0.00,242.88,0.00,49.42,0.00,0.21,0.00,0.31
9,interprète,0.00,3.77,0.00,247.44,0.00,62.96,0.00,0.66,0.00,1.01
10,interprète,0.00,2.63,0.00,294.74,,,,,,
11,Interprète en C++,0.00,4.76,0.00,648.79,0.00,181.67,0.00,0.08,0.00,0.09
12,interprète,0.00,3.71,0.00,388.70,0.00,100.72,0.00,0.19,0.00,0.38
13,interprète,0.00,5.26,0.00,520.88,0.00,139.91,0.00,0.55,0.00,0.86
15,interprète,0.00,3.99,0.00,530.66,0.00,112.16,0.00,0.39,0.00,0.70
16,compilation vers du C,0.00,0.25,0.00,1.87,0.00,0.09,0.00,0.11,0.00,0.11
17,interprète,0.00,3.38,0.00,341.68,,,0.00,1.31,0.00,1.98
18,interprète,0.00,7.79,0.00,449.87,0.00,114.33,0.00,2.33,0.00,3.36
20,compilation vers du C,3.06,0.00,398.27,0.00,,,1.03,0.00,0.16,0.05
21,interprète,0.00,2.86,0.00,271.19,0.00,54.06,0.00,0.49,0.00,0.79
