INPUT inc
OUTPUT s
VAR
  _l_20_101 : 18, _l_20_107 : 17, _l_20_113 : 16, _l_20_119 : 15, _l_20_125 : 14, 
  _l_20_131 : 13, _l_20_137 : 12, _l_20_143 : 11, _l_20_149 : 10, _l_20_155 : 9, 
  _l_20_161 : 8, _l_20_167 : 7, _l_20_173 : 6, _l_20_179 : 5, _l_20_185 : 4, 
  _l_20_191 : 3, _l_20_197 : 2, _l_20_203 : 1, _l_20_23 : 31, _l_20_29 : 30, 
  _l_20_35 : 29, _l_20_41 : 28, _l_20_47 : 27, _l_20_53 : 26, _l_20_59 : 25, 
  _l_20_65 : 24, _l_20_71 : 23, _l_20_77 : 22, _l_20_83 : 21, _l_20_89 : 20, 
  _l_20_95 : 19, inc, inc2_102, inc2_108, inc2_114, inc2_120, inc2_126, 
  inc2_132, inc2_138, inc2_144, inc2_150, inc2_156, inc2_162, inc2_168, 
  inc2_174, inc2_180, inc2_186, inc2_192, inc2_198, inc2_204, inc2_210, 
  inc2_24, inc2_30, inc2_36, inc2_42, inc2_48, inc2_54, inc2_60, inc2_66, 
  inc2_72, inc2_78, inc2_84, inc2_90, inc2_96, p_221, p_226, p_231, p_236, 
  p_241, p_246, p_251, p_256, p_261, p_266, p_271, p_276, p_281, p_286, 
  p_291, p_296, p_301, p_306, p_311, p_316, p_321, p_326, p_331, p_336, 
  p_341, p_346, p_351, p_356, p_361, p_366, p_371, p_376, s : 32, s0_103, 
  s0_109, s0_115, s0_121, s0_127, s0_133, s0_139, s0_145, s0_151, s0_157, 
  s0_163, s0_169, s0_175, s0_181, s0_187, s0_193, s0_199, s0_205, s0_211, 
  s0_25, s0_31, s0_37, s0_43, s0_49, s0_55, s0_61, s0_67, s0_73, s0_79, 
  s0_85, s0_91, s0_97
IN
s = CONCAT _l_20_23 s0_25
inc2_24 = AND p_376 inc
s0_25 = XOR p_376 inc
p_376 = REG s0_25
_l_20_23 = CONCAT _l_20_29 s0_31
inc2_30 = AND p_371 inc2_24
s0_31 = XOR p_371 inc2_24
p_371 = REG s0_31
_l_20_29 = CONCAT _l_20_35 s0_37
inc2_36 = AND p_366 inc2_30
s0_37 = XOR p_366 inc2_30
p_366 = REG s0_37
_l_20_35 = CONCAT _l_20_41 s0_43
inc2_42 = AND p_361 inc2_36
s0_43 = XOR p_361 inc2_36
p_361 = REG s0_43
_l_20_41 = CONCAT _l_20_47 s0_49
inc2_48 = AND p_356 inc2_42
s0_49 = XOR p_356 inc2_42
p_356 = REG s0_49
_l_20_47 = CONCAT _l_20_53 s0_55
inc2_54 = AND p_351 inc2_48
s0_55 = XOR p_351 inc2_48
p_351 = REG s0_55
_l_20_53 = CONCAT _l_20_59 s0_61
inc2_60 = AND p_346 inc2_54
s0_61 = XOR p_346 inc2_54
p_346 = REG s0_61
_l_20_59 = CONCAT _l_20_65 s0_67
inc2_66 = AND p_341 inc2_60
s0_67 = XOR p_341 inc2_60
p_341 = REG s0_67
_l_20_65 = CONCAT _l_20_71 s0_73
inc2_72 = AND p_336 inc2_66
s0_73 = XOR p_336 inc2_66
p_336 = REG s0_73
_l_20_71 = CONCAT _l_20_77 s0_79
inc2_78 = AND p_331 inc2_72
s0_79 = XOR p_331 inc2_72
p_331 = REG s0_79
_l_20_77 = CONCAT _l_20_83 s0_85
inc2_84 = AND p_326 inc2_78
s0_85 = XOR p_326 inc2_78
p_326 = REG s0_85
_l_20_83 = CONCAT _l_20_89 s0_91
inc2_90 = AND p_321 inc2_84
s0_91 = XOR p_321 inc2_84
p_321 = REG s0_91
_l_20_89 = CONCAT _l_20_95 s0_97
inc2_96 = AND p_316 inc2_90
s0_97 = XOR p_316 inc2_90
p_316 = REG s0_97
_l_20_95 = CONCAT _l_20_101 s0_103
inc2_102 = AND p_311 inc2_96
s0_103 = XOR p_311 inc2_96
p_311 = REG s0_103
_l_20_101 = CONCAT _l_20_107 s0_109
inc2_108 = AND p_306 inc2_102
s0_109 = XOR p_306 inc2_102
p_306 = REG s0_109
_l_20_107 = CONCAT _l_20_113 s0_115
inc2_114 = AND p_301 inc2_108
s0_115 = XOR p_301 inc2_108
p_301 = REG s0_115
_l_20_113 = CONCAT _l_20_119 s0_121
inc2_120 = AND p_296 inc2_114
s0_121 = XOR p_296 inc2_114
p_296 = REG s0_121
_l_20_119 = CONCAT _l_20_125 s0_127
inc2_126 = AND p_291 inc2_120
s0_127 = XOR p_291 inc2_120
p_291 = REG s0_127
_l_20_125 = CONCAT _l_20_131 s0_133
inc2_132 = AND p_286 inc2_126
s0_133 = XOR p_286 inc2_126
p_286 = REG s0_133
_l_20_131 = CONCAT _l_20_137 s0_139
inc2_138 = AND p_281 inc2_132
s0_139 = XOR p_281 inc2_132
p_281 = REG s0_139
_l_20_137 = CONCAT _l_20_143 s0_145
inc2_144 = AND p_276 inc2_138
s0_145 = XOR p_276 inc2_138
p_276 = REG s0_145
_l_20_143 = CONCAT _l_20_149 s0_151
inc2_150 = AND p_271 inc2_144
s0_151 = XOR p_271 inc2_144
p_271 = REG s0_151
_l_20_149 = CONCAT _l_20_155 s0_157
inc2_156 = AND p_266 inc2_150
s0_157 = XOR p_266 inc2_150
p_266 = REG s0_157
_l_20_155 = CONCAT _l_20_161 s0_163
inc2_162 = AND p_261 inc2_156
s0_163 = XOR p_261 inc2_156
p_261 = REG s0_163
_l_20_161 = CONCAT _l_20_167 s0_169
inc2_168 = AND p_256 inc2_162
s0_169 = XOR p_256 inc2_162
p_256 = REG s0_169
_l_20_167 = CONCAT _l_20_173 s0_175
inc2_174 = AND p_251 inc2_168
s0_175 = XOR p_251 inc2_168
p_251 = REG s0_175
_l_20_173 = CONCAT _l_20_179 s0_181
inc2_180 = AND p_246 inc2_174
s0_181 = XOR p_246 inc2_174
p_246 = REG s0_181
_l_20_179 = CONCAT _l_20_185 s0_187
inc2_186 = AND p_241 inc2_180
s0_187 = XOR p_241 inc2_180
p_241 = REG s0_187
_l_20_185 = CONCAT _l_20_191 s0_193
inc2_192 = AND p_236 inc2_186
s0_193 = XOR p_236 inc2_186
p_236 = REG s0_193
_l_20_191 = CONCAT _l_20_197 s0_199
inc2_198 = AND p_231 inc2_192
s0_199 = XOR p_231 inc2_192
p_231 = REG s0_199
_l_20_197 = CONCAT _l_20_203 s0_205
inc2_204 = AND p_226 inc2_198
s0_205 = XOR p_226 inc2_198
p_226 = REG s0_205
_l_20_203 = s0_211
inc2_210 = AND p_221 inc2_204
s0_211 = XOR p_221 inc2_204
p_221 = REG s0_211

